// Jest Snapshot v1, https://goo.gl/fbAQLP

exports[`Line Line should match to snapshot 1`] = `
<View
  style={
    Array [
      Object {
        "backgroundColor": "#eeeeee",
        "marginVertical": 4,
        "overflow": "hidden",
      },
      Object {
        "borderRadius": NaN,
        "height": "100px",
        "width": "100px",
      },
      Object {
        "backgroundColor": "#eeeeee",
        "marginVertical": 4,
        "overflow": "hidden",
      },
    ]
  }
/>
`;
