// Jest Snapshot v1, https://goo.gl/fbAQLP

exports[`GenericErrorMessage Should render GenericErrorMessage 1`] = `
<View
  style={
    Object {
      "backgroundColor": "rgba(255, 0, 0, 0.9)",
      "borderRadius": 3,
    }
  }
>
  <View
    style={
      Object {
        "alignItems": "center",
        "backgroundColor": "rgba(255, 255, 255, 0.3)",
        "borderRadius": 3,
        "flex": 1,
        "flexDirection": "row",
        "paddingHorizontal": 19,
        "paddingVertical": 8,
      }
    }
  >
    <View
      accessible={true}
      focusable={true}
      onClick={[Function]}
      onResponderGrant={[Function]}
      onResponderMove={[Function]}
      onResponderRelease={[Function]}
      onResponderTerminate={[Function]}
      onResponderTerminationRequest={[Function]}
      onStartShouldSetResponder={[Function]}
      style={
        Object {
          "flex": 1,
        }
      }
    >
      <Text
        allowFontScaling={false}
        style={
          Array [
            Object {
              "color": "white",
              "fontSize": 18,
            },
            undefined,
            Object {
              "fontFamily": "FontAwesome",
              "fontStyle": "normal",
              "fontWeight": "normal",
            },
            Object {},
          ]
        }
      >
        
      </Text>
    </View>
    <View
      style={
        Object {
          "flex": 8,
        }
      }
    >
      <Text
        style={
          Object {
            "color": "white",
            "fontSize": 14,
            "fontWeight": "bold",
          }
        }
      >
        Error: 
        <Text
          style={
            Object {
              "color": "white",
              "fontSize": 14,
              "fontWeight": "normal",
            }
          }
        />
      </Text>
    </View>
  </View>
</View>
`;
