// Jest Snapshot v1, https://goo.gl/fbAQLP

exports[`MenuSlider Should render Menu Slider component 1`] = `
<RCTScrollView
  ListFooterComponent={
    <View
      style={
        Object {
          "width": 40,
        }
      }
    />
  }
  data={
    Array [
      Object {
        "id": 1,
        "name": "Meal name",
      },
      Object {
        "id": 2,
        "name": "Meal name 2",
      },
    ]
  }
  disableVirtualization={false}
  getItem={[Function]}
  getItemCount={[Function]}
  horizontal={true}
  initialNumToRender={10}
  keyExtractor={[Function]}
  maxToRenderPerBatch={10}
  onContentSizeChange={[Function]}
  onEndReachedThreshold={2}
  onLayout={[Function]}
  onMomentumScrollEnd={[Function]}
  onScroll={[Function]}
  onScrollBeginDrag={[Function]}
  onScrollEndDrag={[Function]}
  removeClippedSubviews={false}
  renderItem={[Function]}
  scrollEventThrottle={50}
  showsHorizontalScrollIndicator={false}
  stickyHeaderIndices={Array []}
  style={
    Object {
      "flex": 1,
      "left": -4,
      "paddingBottom": 0,
      "paddingLeft": 20,
      "paddingRight": 20,
      "paddingTop": 16,
      "top": -8,
    }
  }
  updateCellsBatchingPeriod={50}
  viewabilityConfigCallbackPairs={Array []}
  windowSize={21}
>
  <View>
    <View
      onLayout={[Function]}
      style={
        Array [
          Object {
            "flexDirection": "row",
          },
          null,
        ]
      }
    />
    <View
      onLayout={[Function]}
      style={
        Array [
          Object {
            "flexDirection": "row",
          },
          null,
        ]
      }
    />
    <View
      onLayout={[Function]}
    >
      <View
        style={
          Object {
            "width": 40,
          }
        }
      />
    </View>
  </View>
</RCTScrollView>
`;
