// Jest Snapshot v1, https://goo.gl/fbAQLP

exports[`ModalSuccessOne Should render show modal 1`] = `
<View>
  <Modal
    animationType="none"
    hardwareAccelerated={false}
    hideModalContentWhileAnimating={false}
    onModalHide={[Function]}
    onModalWillHide={[Function]}
    onModalWillShow={[Function]}
    onRequestClose={[Function]}
    scrollHorizontal={false}
    scrollOffset={0}
    scrollOffsetMax={0}
    scrollTo={null}
    supportedOrientations={
      Array [
        "portrait",
        "landscape",
      ]
    }
    swipeThreshold={100}
    transparent={true}
    visible={true}
  >
    <View
      accessible={true}
      focusable={true}
      forwardedRef={[Function]}
      onClick={[Function]}
      onResponderGrant={[Function]}
      onResponderMove={[Function]}
      onResponderRelease={[Function]}
      onResponderTerminate={[Function]}
      onResponderTerminationRequest={[Function]}
      onStartShouldSetResponder={[Function]}
      style={
        Object {
          "backgroundColor": "black",
          "bottom": 0,
          "height": 1334,
          "left": 0,
          "opacity": 0,
          "position": "absolute",
          "right": 0,
          "top": 0,
          "width": 750,
        }
      }
    />
    <View
      forwardedRef={[Function]}
      hideModalContentWhileAnimating={false}
      onModalHide={[Function]}
      onModalWillHide={[Function]}
      onModalWillShow={[Function]}
      pointerEvents="box-none"
      scrollHorizontal={false}
      scrollOffset={0}
      scrollOffsetMax={0}
      scrollTo={null}
      style={
        Object {
          "alignItems": "center",
          "flex": 1,
          "justifyContent": "center",
          "margin": 37.5,
          "transform": Array [
            Object {
              "translateY": 1334,
            },
          ],
        }
      }
      supportedOrientations={
        Array [
          "portrait",
          "landscape",
        ]
      }
      swipeThreshold={100}
    >
      <View
        style={
          Object {
            "backgroundColor": "#fff",
            "borderRadius": 10,
            "height": 238,
            "paddingTop": 36,
            "width": 280,
          }
        }
      >
        <Text
          allowFontScaling={false}
          style={
            Array [
              Object {
                "color": "#ff4c00",
                "fontSize": 36,
              },
              Object {
                "alignSelf": "center",
              },
              Object {
                "fontFamily": "FontAwesome",
                "fontStyle": "normal",
                "fontWeight": "normal",
              },
              Object {},
            ]
          }
        >
          
        </Text>
        <Text
          style={
            Object {
              "alignSelf": "center",
              "color": "rgb(69,69,69)",
              "fontFamily": "Rubik-Medium",
              "fontSize": 14,
              "letterSpacing": 1.6,
              "marginTop": 9,
            }
          }
        >
          SUCCESS
        </Text>
        <Text
          style={
            Object {
              "alignSelf": "center",
              "color": "rgb(69,69,69)",
              "fontFamily": "Rubik-Light",
              "fontSize": 14,
              "marginTop": 4,
              "textAlign": "center",
            }
          }
        >
          message
        </Text>
        <View
          accessible={true}
          focusable={true}
          onClick={[Function]}
          onResponderGrant={[Function]}
          onResponderMove={[Function]}
          onResponderRelease={[Function]}
          onResponderTerminate={[Function]}
          onResponderTerminationRequest={[Function]}
          onStartShouldSetResponder={[Function]}
          style={
            Object {
              "alignItems": "center",
              "alignSelf": "center",
              "backgroundColor": "#ff4c00",
              "borderRadius": 21,
              "height": 35,
              "justifyContent": "center",
              "marginTop": 27,
              "opacity": 1,
              "width": 76,
            }
          }
        >
          <Text
            style={
              Object {
                "color": "#fff",
                "fontFamily": "Rubik-Regular",
                "fontSize": 16,
              }
            }
          >
            Done
          </Text>
        </View>
      </View>
    </View>
  </Modal>
</View>
`;
