// Jest Snapshot v1, https://goo.gl/fbAQLP

exports[`PromotionBanner PromotionBanner should match to snapshot 1`] = `
<View
  style={
    Object {
      "backgroundColor": "transparent",
    }
  }
>
  <View
    style={
      Object {
        "flex": 1,
      }
    }
  >
    <RCTScrollView
      ItemSeparatorComponent={[Function]}
      data={
        Array [
          Object {
            "id": 1,
            "src": "source.jpg",
          },
          Object {
            "id": "2",
            "src": "source-2.jpg",
          },
        ]
      }
      disableVirtualization={false}
      getItem={[Function]}
      getItemCount={[Function]}
      horizontal={true}
      initialNumToRender={10}
      keyExtractor={[Function]}
      maxToRenderPerBatch={10}
      onContentSizeChange={[Function]}
      onEndReachedThreshold={2}
      onLayout={[Function]}
      onMomentumScrollEnd={[Function]}
      onScroll={[Function]}
      onScrollBeginDrag={[Function]}
      onScrollEndDrag={[Function]}
      pagingEnabled={true}
      removeClippedSubviews={false}
      renderItem={[Function]}
      scrollEventThrottle={16}
      showsHorizontalScrollIndicator={false}
      stickyHeaderIndices={Array []}
      style={Object {}}
      updateCellsBatchingPeriod={50}
      viewabilityConfigCallbackPairs={Array []}
      windowSize={21}
    >
      <View>
        <View
          onLayout={[Function]}
          style={
            Array [
              Object {
                "flexDirection": "row",
              },
              null,
            ]
          }
        >
          <View
            accessible={true}
            focusable={true}
            onClick={[Function]}
            onResponderGrant={[Function]}
            onResponderMove={[Function]}
            onResponderRelease={[Function]}
            onResponderTerminate={[Function]}
            onResponderTerminationRequest={[Function]}
            onStartShouldSetResponder={[Function]}
            style={
              Object {
                "borderRadius": 8,
                "height": 274.6470588235294,
                "width": 666.4285714285714,
              }
            }
          >
            <Image
              resizeMode="cover"
              source={
                Object {
                  "uri": undefined,
                }
              }
              style={
                Object {
                  "borderRadius": 8,
                  "height": 274.6470588235294,
                  "width": 666.4285714285714,
                }
              }
            />
          </View>
          <View
            style={
              Object {
                "backgroundColor": "transparent",
                "width": 17.142857142857142,
              }
            }
          />
        </View>
        <View
          onLayout={[Function]}
          style={
            Array [
              Object {
                "flexDirection": "row",
              },
              null,
            ]
          }
        >
          <View
            accessible={true}
            focusable={true}
            onClick={[Function]}
            onResponderGrant={[Function]}
            onResponderMove={[Function]}
            onResponderRelease={[Function]}
            onResponderTerminate={[Function]}
            onResponderTerminationRequest={[Function]}
            onStartShouldSetResponder={[Function]}
            style={
              Object {
                "borderRadius": 8,
                "height": 274.6470588235294,
                "width": 666.4285714285714,
              }
            }
          >
            <Image
              resizeMode="cover"
              source={
                Object {
                  "uri": undefined,
                }
              }
              style={
                Object {
                  "borderRadius": 8,
                  "height": 274.6470588235294,
                  "width": 666.4285714285714,
                }
              }
            />
          </View>
        </View>
      </View>
    </RCTScrollView>
    <View
      style={
        Object {
          "bottom": 19.61764705882353,
          "flexDirection": "row",
          "left": 40.714285714285715,
        }
      }
    >
      <View
        style={
          Object {
            "backgroundColor": "rgba(255, 255, 255, 1)",
            "borderColor": "white",
            "borderRadius": 5,
            "borderStyle": "solid",
            "borderWidth": 1,
            "height": 11.770588235294117,
            "marginHorizontal": 10.714285714285714,
            "width": 12.857142857142858,
          }
        }
      />
      <View
        style={
          Object {
            "backgroundColor": "rgba(0, 0, 0, 0)",
            "borderColor": "white",
            "borderRadius": 5,
            "borderStyle": "solid",
            "borderWidth": 1,
            "height": 11.770588235294117,
            "marginHorizontal": 10.714285714285714,
            "width": 12.857142857142858,
          }
        }
      />
    </View>
  </View>
</View>
`;
