// Jest Snapshot v1, https://goo.gl/fbAQLP

exports[`Row Should render text input in Row 1`] = `
<View>
  <TextInput
    allowFontScaling={true}
    rejectResponderTermination={true}
    underlineColorAndroid="transparent"
    value="Test"
  />
</View>
`;
