// Jest Snapshot v1, https://goo.gl/fbAQLP

exports[`CreditCardPicker Should render CreditCardPicker with card list 1`] = `
<View
  style={
    Object {
      "marginTop": 30,
    }
  }
>
  <View>
    <Text
      style={
        Object {
          "color": "rgb(96,96,96)",
          "fontFamily": "Rubik-Regular",
          "fontSize": 14,
          "textAlign": "center",
        }
      }
    >
      Select Credit Card
    </Text>
    <View
      style={
        Object {
          "borderBottomColor": "rgb(216,216,216)",
          "borderBottomWidth": 0.5,
          "borderStyle": "solid",
          "borderTopColor": "rgb(216,216,216)",
          "borderTopWidth": 0.5,
          "marginBottom": 16,
          "marginTop": 10,
        }
      }
    >
      <View
        accessible={true}
        focusable={true}
        onClick={[Function]}
        onResponderGrant={[Function]}
        onResponderMove={[Function]}
        onResponderRelease={[Function]}
        onResponderTerminate={[Function]}
        onResponderTerminationRequest={[Function]}
        onStartShouldSetResponder={[Function]}
        style={
          Object {
            "alignItems": "center",
            "flexDirection": "row",
            "marginVertical": 19,
            "paddingLeft": 9,
          }
        }
      >
        <View
          accessible={true}
          focusable={true}
          onClick={[Function]}
          onResponderGrant={[Function]}
          onResponderMove={[Function]}
          onResponderRelease={[Function]}
          onResponderTerminate={[Function]}
          onResponderTerminationRequest={[Function]}
          onStartShouldSetResponder={[Function]}
          style={
            Object {
              "alignItems": "center",
              "alignSelf": "center",
              "borderColor": "#ff6c4a",
              "borderRadius": 8.5,
              "borderWidth": 2,
              "height": 17,
              "justifyContent": "center",
              "opacity": 1,
              "width": 17,
            }
          }
        >
          <View
            forwardedRef={[Function]}
            innerColor="#ff6c4a"
            isSelected={true}
            onPress={[Function]}
            outerColor="#ff6c4a"
            size={10}
            style={
              Object {
                "backgroundColor": "#ff6c4a",
                "borderRadius": 5,
                "height": 10,
                "opacity": 0,
                "transform": Array [
                  Object {
                    "scale": 0.3,
                  },
                ],
                "width": 10,
              }
            }
          />
        </View>
        <View
          style={
            Object {
              "flex": 1,
              "flexDirection": "row",
              "justifyContent": "center",
              "paddingRight": 20,
            }
          }
        >
          <Text
            allowFontScaling={false}
            style={
              Array [
                Object {
                  "color": "rgb(86,86,86)",
                  "fontSize": 28,
                },
                undefined,
                Object {
                  "fontFamily": "YummyFontIcon",
                  "fontStyle": "normal",
                  "fontWeight": "normal",
                },
                Object {},
              ]
            }
          >
            
          </Text>
          <Text
            style={
              Object {
                "color": "rgb(96,96,96)",
                "fontFamily": "Rubik-Regular",
                "fontSize": 14,
                "marginLeft": 12,
              }
            }
          >
            **** **** **** 
          </Text>
        </View>
      </View>
      <View
        accessible={true}
        focusable={true}
        onClick={[Function]}
        onResponderGrant={[Function]}
        onResponderMove={[Function]}
        onResponderRelease={[Function]}
        onResponderTerminate={[Function]}
        onResponderTerminationRequest={[Function]}
        onStartShouldSetResponder={[Function]}
        style={
          Object {
            "alignItems": "center",
            "flexDirection": "row",
            "marginVertical": 19,
            "paddingLeft": 9,
          }
        }
      >
        <View
          accessible={true}
          focusable={true}
          onClick={[Function]}
          onResponderGrant={[Function]}
          onResponderMove={[Function]}
          onResponderRelease={[Function]}
          onResponderTerminate={[Function]}
          onResponderTerminationRequest={[Function]}
          onStartShouldSetResponder={[Function]}
          style={
            Object {
              "alignItems": "center",
              "alignSelf": "center",
              "borderColor": "#ff6c4a",
              "borderRadius": 8.5,
              "borderWidth": 2,
              "height": 17,
              "justifyContent": "center",
              "opacity": 1,
              "width": 17,
            }
          }
        >
          <View
            forwardedRef={[Function]}
            innerColor="#ff6c4a"
            isSelected={true}
            onPress={[Function]}
            outerColor="#ff6c4a"
            size={10}
            style={
              Object {
                "backgroundColor": "#ff6c4a",
                "borderRadius": 5,
                "height": 10,
                "opacity": 0,
                "transform": Array [
                  Object {
                    "scale": 0.3,
                  },
                ],
                "width": 10,
              }
            }
          />
        </View>
        <View
          style={
            Object {
              "flex": 1,
              "flexDirection": "row",
              "justifyContent": "center",
              "paddingRight": 20,
            }
          }
        >
          <Text
            allowFontScaling={false}
            style={
              Array [
                Object {
                  "color": "rgb(86,86,86)",
                  "fontSize": 28,
                },
                undefined,
                Object {
                  "fontFamily": "YummyFontIcon",
                  "fontStyle": "normal",
                  "fontWeight": "normal",
                },
                Object {},
              ]
            }
          >
            
          </Text>
          <Text
            style={
              Object {
                "color": "rgb(96,96,96)",
                "fontFamily": "Rubik-Regular",
                "fontSize": 14,
                "marginLeft": 12,
              }
            }
          >
            **** **** **** 
          </Text>
        </View>
      </View>
    </View>
  </View>
  <View
    accessible={true}
    focusable={true}
    onClick={[Function]}
    onResponderGrant={[Function]}
    onResponderMove={[Function]}
    onResponderRelease={[Function]}
    onResponderTerminate={[Function]}
    onResponderTerminationRequest={[Function]}
    onStartShouldSetResponder={[Function]}
    style={
      Object {
        "opacity": 1,
      }
    }
  >
    <Text
      style={
        Object {
          "color": "#ff6c4a",
          "fontFamily": "Rubik-Regular",
          "fontSize": 14,
          "letterSpacing": 0.1,
          "marginBottom": 27,
          "textAlign": "center",
        }
      }
    >
      + Add New Card
    </Text>
  </View>
</View>
`;

exports[`CreditCardPicker Should render CreditCardPicker with credit card form 1`] = `
<View
  style={
    Object {
      "marginTop": 30,
    }
  }
>
  <View
    style={
      Object {
        "flex": 1,
        "marginBottom": 33,
        "width": "100%",
      }
    }
  >
    <View
      style={
        Object {
          "alignItems": "center",
          "flexDirection": "row",
          "overflow": "hidden",
        }
      }
    >
      <View
        style={
          Object {
            "alignItems": "flex-end",
            "borderBottomColor": "rgb(96,96,96)",
            "borderBottomWidth": 0.5,
            "flexDirection": "row",
            "justifyContent": "center",
          }
        }
      >
        <View
          style={
            Array [
              Object {
                "overflow": "hidden",
                "width": "100%",
              },
              Object {
                "flex": 1,
              },
            ]
          }
        >
          <View
            accessible={true}
            focusable={true}
            onClick={[Function]}
            onResponderGrant={[Function]}
            onResponderMove={[Function]}
            onResponderRelease={[Function]}
            onResponderTerminate={[Function]}
            onResponderTerminationRequest={[Function]}
            onStartShouldSetResponder={[Function]}
            style={
              Object {
                "borderBottomColor": "rgb(190,190,190)",
                "borderBottomWidth": 0,
                "flex": 1,
                "opacity": 1,
              }
            }
          >
            <Text
              style={
                Object {
                  "color": "#000",
                  "fontFamily": "Rubik-Regular",
                  "fontSize": 32,
                  "paddingRight": 30,
                }
              }
            >
              
            </Text>
            <View
              style={
                Object {
                  "height": 78.47058823529412,
                  "marginTop": 19.61764705882353,
                  "width": 1000,
                }
              }
            >
              <TextInput
                accessibilityLabel="ccNumber"
                allowFontScaling={true}
                autoCapitalize="words"
                autoCorrect={false}
                keyboardType="numeric"
                onChangeText={[Function]}
                onFocus={[Function]}
                placeholder="Credit Card Number"
                placeholderTextColor="gray"
                rejectResponderTermination={true}
                style={
                  Object {
                    "color": "rgb(69,69,69)",
                    "flex": 1,
                    "fontFamily": "Rubik-Regular",
                    "fontSize": 30,
                    "top": 13.73235294117647,
                  }
                }
                testID="ccNumber"
                underlineColorAndroid="transparent"
                value=""
              />
            </View>
          </View>
        </View>
        <View
          accessibilityLabel="imgCC"
          accessible={true}
          focusable={true}
          onClick={[Function]}
          onResponderGrant={[Function]}
          onResponderMove={[Function]}
          onResponderRelease={[Function]}
          onResponderTerminate={[Function]}
          onResponderTerminationRequest={[Function]}
          onStartShouldSetResponder={[Function]}
          style={
            Object {
              "opacity": 1,
            }
          }
          testID="imgCC"
        >
          <Text
            allowFontScaling={false}
            style={
              Array [
                Object {
                  "color": "rgb(69,69,69)",
                  "fontSize": 55.714285714285715,
                },
                Object {
                  "marginBottom": 9.808823529411764,
                },
                Object {
                  "fontFamily": "YummyFontIcon",
                  "fontStyle": "normal",
                  "fontWeight": "normal",
                },
                Object {},
              ]
            }
          >
            
          </Text>
        </View>
      </View>
      <View
        style={
          Array [
            Object {
              "flexDirection": "row",
              "overflow": "hidden",
            },
            Object {
              "width": 0,
            },
          ]
        }
      >
        <View
          accessible={true}
          focusable={true}
          onClick={[Function]}
          onResponderGrant={[Function]}
          onResponderMove={[Function]}
          onResponderRelease={[Function]}
          onResponderTerminate={[Function]}
          onResponderTerminationRequest={[Function]}
          onStartShouldSetResponder={[Function]}
          style={
            Object {
              "flex": 1,
              "justifyContent": "center",
              "opacity": 1,
            }
          }
        >
          <View
            pointerEvents="none"
          >
            <View
              accessible={true}
              focusable={true}
              onClick={[Function]}
              onResponderGrant={[Function]}
              onResponderMove={[Function]}
              onResponderRelease={[Function]}
              onResponderTerminate={[Function]}
              onResponderTerminationRequest={[Function]}
              onStartShouldSetResponder={[Function]}
              style={
                Object {
                  "borderBottomColor": "rgb(190,190,190)",
                  "borderBottomWidth": 0,
                  "flex": 1,
                  "opacity": 1,
                }
              }
            >
              <Text
                style={
                  Object {
                    "color": "#000",
                    "fontFamily": "Rubik-Regular",
                    "fontSize": 32,
                    "paddingRight": 30,
                  }
                }
              >
                
              </Text>
              <View
                style={
                  Object {
                    "borderBottomColor": "rgb(190,190,190)",
                    "borderBottomWidth": 1,
                    "height": 78.47058823529412,
                    "marginLeft": 21.428571428571427,
                    "marginTop": 19.61764705882353,
                    "width": 195,
                  }
                }
              >
                <TextInput
                  allowFontScaling={true}
                  autoCapitalize="words"
                  autoCorrect={false}
                  keyboardType="numeric"
                  onChangeText={[Function]}
                  onFocus={[Function]}
                  rejectResponderTermination={true}
                  style={
                    Object {
                      "color": "rgb(69,69,69)",
                      "flex": 1,
                      "fontFamily": "Rubik-Regular",
                      "fontSize": 30,
                      "height": 78.47058823529412,
                      "top": 13.73235294117647,
                    }
                  }
                  underlineColorAndroid="transparent"
                  value=""
                />
              </View>
            </View>
          </View>
        </View>
        <View
          style={
            Object {
              "right": 42.857142857142854,
            }
          }
        >
          <View
            accessible={true}
            focusable={true}
            onClick={[Function]}
            onResponderGrant={[Function]}
            onResponderMove={[Function]}
            onResponderRelease={[Function]}
            onResponderTerminate={[Function]}
            onResponderTerminationRequest={[Function]}
            onStartShouldSetResponder={[Function]}
            style={
              Object {
                "borderBottomColor": "rgb(190,190,190)",
                "borderBottomWidth": 0,
                "flex": 1,
                "opacity": 1,
              }
            }
          >
            <Text
              style={
                Object {
                  "color": "#000",
                  "fontFamily": "Rubik-Regular",
                  "fontSize": 32,
                  "paddingRight": 30,
                }
              }
            >
              
            </Text>
            <View
              style={
                Object {
                  "borderBottomColor": "rgb(96,96,96)",
                  "borderBottomWidth": 1,
                  "height": 78.47058823529412,
                  "marginLeft": 42.857142857142854,
                  "marginTop": 19.61764705882353,
                  "width": 195,
                }
              }
            >
              <TextInput
                accessibilityLabel="expDate"
                allowFontScaling={true}
                autoCapitalize="words"
                autoCorrect={false}
                keyboardType="numeric"
                onChangeText={[Function]}
                onFocus={[Function]}
                placeholder="Expiry Date"
                placeholderTextColor="gray"
                rejectResponderTermination={true}
                style={
                  Object {
                    "color": "rgb(69,69,69)",
                    "flex": 1,
                    "fontFamily": "Rubik-Regular",
                    "fontSize": 30,
                    "top": 13.73235294117647,
                  }
                }
                testID="expDate"
                underlineColorAndroid="transparent"
                value=""
              />
            </View>
          </View>
        </View>
        <View
          style={
            Object {
              "right": 32.14285714285714,
            }
          }
        >
          <View
            accessible={true}
            focusable={true}
            onClick={[Function]}
            onResponderGrant={[Function]}
            onResponderMove={[Function]}
            onResponderRelease={[Function]}
            onResponderTerminate={[Function]}
            onResponderTerminationRequest={[Function]}
            onStartShouldSetResponder={[Function]}
            style={
              Object {
                "borderBottomColor": "rgb(190,190,190)",
                "borderBottomWidth": 0,
                "flex": 1,
                "opacity": 1,
              }
            }
          >
            <Text
              style={
                Object {
                  "color": "#000",
                  "fontFamily": "Rubik-Regular",
                  "fontSize": 32,
                  "paddingRight": 30,
                }
              }
            >
              
            </Text>
            <View
              style={
                Object {
                  "borderBottomColor": "rgb(96,96,96)",
                  "borderBottomWidth": 1,
                  "height": 78.47058823529412,
                  "marginLeft": 21.428571428571427,
                  "marginTop": 19.61764705882353,
                  "width": 113.57142857142857,
                }
              }
            >
              <TextInput
                accessibilityLabel="cvc"
                allowFontScaling={true}
                autoCapitalize="words"
                autoCorrect={false}
                keyboardType="numeric"
                onChangeText={[Function]}
                onFocus={[Function]}
                placeholder="CVC"
                placeholderTextColor="gray"
                rejectResponderTermination={true}
                style={
                  Object {
                    "color": "rgb(69,69,69)",
                    "flex": 1,
                    "fontFamily": "Rubik-Regular",
                    "fontSize": 30,
                    "top": 13.73235294117647,
                  }
                }
                testID="cvc"
                underlineColorAndroid="transparent"
                value=""
              />
            </View>
          </View>
        </View>
      </View>
    </View>
    <View
      accessibilityLabel="saveCC"
      accessible={true}
      focusable={true}
      onClick={[Function]}
      onResponderGrant={[Function]}
      onResponderMove={[Function]}
      onResponderRelease={[Function]}
      onResponderTerminate={[Function]}
      onResponderTerminationRequest={[Function]}
      onStartShouldSetResponder={[Function]}
      style={
        Object {
          "flexDirection": "row",
          "marginTop": 12,
        }
      }
      testID="saveCC"
    >
      <View>
        <View
          style={
            Array [
              Object {
                "alignItems": "center",
                "borderRadius": 2,
                "borderWidth": 1,
                "height": 16,
                "justifyContent": "center",
                "padding": 2,
                "width": 16,
              },
              Object {
                "borderColor": "rgb(190,190,190)",
              },
            ]
          }
        >
          <Text
            allowFontScaling={false}
            style={
              Array [
                Object {
                  "color": "transparent",
                  "fontSize": 10,
                },
                undefined,
                Object {
                  "fontFamily": "FontAwesome",
                  "fontStyle": "normal",
                  "fontWeight": "normal",
                },
                Object {},
              ]
            }
          >
            
          </Text>
        </View>
      </View>
      <View
        style={
          Object {
            "marginLeft": 8,
          }
        }
      >
        <Text
          style={
            Object {
              "color": "rgb(96,96,96)",
              "fontFamily": "Rubik-Regular",
              "fontSize": 12,
            }
          }
        >
          Save Credit Card
        </Text>
      </View>
    </View>
  </View>
</View>
`;
